<svg fill="none" width="21" height="21" viewBox="0 0 21 21" fill="none" xmlns="http://www.w3.org/2000/svg">
<path d="M1.28248 12.9474H10.9087V15.2167L16.3361 10.5253L10.9087 5.78329V8.06322L1.29809 8.06824L1.36439 7.87434C2.5038 3.90508 6.16161 1 10.4969 1C15.7438 1 19.9972 5.25342 19.9972 10.5003C19.9972 15.7466 15.7438 20 10.4969 20C5.3292 20 1.12481 15.8731 1 10.736" stroke="currentColor" style="stroke-width: inherit;" stroke-miterlimit="10" stroke-linecap="round" stroke-linejoin="round"/>
</svg>
