<svg width="708" height="396" viewBox="0 0 708 396" fill="none" xmlns="http://www.w3.org/2000/svg">
<path d="M78 75.0469C89.5479 66.3684 102.764 58.2612 117.43 50.832C178.049 20.1232 263.42 1 358 1C444.618 1 523.512 17.0389 582.743 43.327C594.657 48.6144 605.775 54.3164 616 60.3858" stroke="#DFDFDF" stroke-width="2"/>
<path d="M681.233 242.534C646.052 285.119 574.555 318.747 485.321 334.408C466.294 337.747 446.46 340.269 426 341.887" stroke="#DFDFDF" stroke-width="2"/>
<path d="M330.285 313.628C276.884 327.752 199.18 313.443 117.524 274.197C100.113 265.829 82.5213 256.327 64.9477 245.725" stroke="#DFDFDF" stroke-width="2"/>
<path d="M29.8342 240.502C63.8531 284.021 134.416 319.567 223.195 337.63C242.125 341.482 261.884 344.538 282.293 346.708" stroke="#DFDFDF" stroke-width="2"/>
<path d="M4.01747 249.275C6.44664 253.253 9.17598 257.175 12.1927 261.034C46.2115 304.553 116.774 340.099 205.553 358.162C228.468 362.825 252.596 366.322 277.622 368.492" stroke="#60B0E1" stroke-width="2"/>
<path d="M706.723 255C704.187 258.911 701.353 262.758 698.233 266.534C663.052 309.119 591.555 342.747 502.321 358.408C479.289 362.45 455.076 365.295 430 366.788" stroke="#DFDFDF" stroke-width="2"/>
<path d="M11.3759 268.142L11.3401 261.071L18.411 261.035" stroke="#60B0E1" stroke-width="2"/>
<path d="M601.071 46L601.071 53.0711L594 53.0711" stroke="#DFDFDF" stroke-width="2"/>
<path d="M443.124 344.659L437 341.124L440.536 335" stroke="#DFDFDF" stroke-width="2"/>
<path d="M443.124 370.659L437 367.124L440.536 361" stroke="#DFDFDF" stroke-width="2"/>
<path d="M252.623 337.669L256.438 343.623L250.484 347.438" stroke="#DFDFDF" stroke-width="2"/>
<path d="M252.623 311.669L256.438 317.623L250.484 321.438" stroke="#DFDFDF" stroke-width="2"/>
</svg>
