<svg width="47" height="40" viewBox="0 0 47 40" fill="none" xmlns="http://www.w3.org/2000/svg">
<path d="M8.48628 30.3916H4.01293C2.54208 30.3916 1.34868 29.1995 1.34868 27.7299V3.66171C1.34868 2.19213 2.54208 1 4.01293 1H42.8339C44.3061 1 45.5083 2.19213 45.5083 3.66171V27.8135C45.5083 29.2831 44.3149 30.4448 42.8453 30.4448H19.6779L11.7434 38.411C11.3963 38.7606 10.9162 38.976 10.3841 38.976C9.32749 38.976 8.48881 38.1373 8.48881 37.082V36.0584" style="stroke: inherit" stroke-width="2" stroke-miterlimit="10" stroke-linecap="round" stroke-linejoin="round"/>
<path d="M27.568 8.63802C27.5465 8.62915 27.0461 8.38845 27.0461 8.38845C26.8725 8.30103 26.6787 8.25796 26.4899 8.25796C26.1289 8.25796 25.84 8.41885 25.669 8.70517C25.5347 8.94081 25.4941 9.19672 25.5486 9.48937C25.6411 9.96191 26.0427 10.1621 26.0503 10.1633C27.4046 10.7943 28.2813 12.2271 28.2813 13.812V17.9559C28.2813 19.5395 27.4033 20.9736 26.03 21.6134C25.9376 21.6654 25.6284 21.8706 25.5486 22.276C25.4941 22.5699 25.5347 22.8258 25.669 23.064C25.84 23.3516 26.1289 23.5087 26.4899 23.5087C26.6787 23.5087 26.8725 23.4631 27.0461 23.3782L27.582 23.121C29.9042 21.8604 31.3446 19.3115 31.3446 16.4699V15.298C31.3446 12.4564 29.9004 9.90617 27.568 8.63802Z" fill="white"/>
<path d="M21.2172 10.1633C21.2222 10.1621 21.6238 9.96191 21.7176 9.48937C21.7708 9.19672 21.7315 8.94081 21.5934 8.70643C21.4249 8.42012 21.1361 8.25922 20.7712 8.25922C20.5875 8.25922 20.3937 8.3023 20.2189 8.38845C20.2189 8.38845 19.7159 8.63042 19.6956 8.63802C17.3646 9.90617 15.9191 12.4577 15.9191 15.2993V16.4699C15.9191 19.3128 17.3633 21.8605 19.6842 23.121L20.2176 23.3782C20.3937 23.4643 20.5875 23.5087 20.7712 23.5087C21.1361 23.5087 21.4249 23.3516 21.5934 23.0653C21.7315 22.8271 21.7708 22.5699 21.7176 22.2773C21.6365 21.8719 21.3261 21.6666 21.2362 21.6147C19.8629 20.9749 18.9849 19.5395 18.9849 17.9559V13.812C18.9849 12.2271 19.8616 10.7943 21.2172 10.1633Z" fill="white"/>
</svg>
