<svg width="26" height="25" viewBox="0 0 26 25" fill="none" xmlns="http://www.w3.org/2000/svg">
<path d="M12.6925 11.7401H12.1939V12.2387V19.3359C12.1939 19.4496 12.0931 19.5722 11.9306 19.5722C11.7681 19.5722 11.6673 19.4496 11.6673 19.3359V12.2387V11.7401H11.1687H7.86897C7.70792 11.7401 7.6067 11.618 7.6067 11.5038C7.6067 11.391 7.70748 11.2684 7.86897 11.2684H11.1687H11.6673V10.7698V8.90307C11.6673 6.96782 13.2399 5.3939 15.1695 5.3939H17.0074C17.1703 5.3939 17.2706 5.5169 17.2706 5.62924C17.2706 5.74215 17.1707 5.86458 17.0074 5.86458H15.1695C13.5162 5.86458 12.1939 7.23956 12.1939 8.90307V10.7698V11.2684H12.6925H17.0074C17.1703 11.2684 17.2706 11.3914 17.2706 11.5038C17.2706 11.6176 17.1698 11.7401 17.0074 11.7401H12.6925ZM21.0032 24.4675H4.88831C2.45089 24.4675 0.498604 22.5596 0.498604 20.2533V4.7138C0.498604 2.40641 2.45096 0.498604 4.88831 0.498604H21.0032C23.4405 0.498604 25.3929 2.40641 25.3929 4.7138V20.2533C25.3929 22.5596 23.4406 24.4675 21.0032 24.4675ZM24.8674 4.7138C24.8674 2.63157 23.1172 0.969286 21.0032 0.969286H4.88831C2.77522 0.969286 1.02513 2.63166 1.02513 4.7138V20.2533C1.02513 22.3347 2.77553 23.9958 4.88831 23.9958H21.0032C23.1169 23.9958 24.8674 22.3348 24.8674 20.2533V4.7138Z" stroke="currentColor" style="stroke-width: inherit;"/>
</svg>
