<svg width="54" height="52" viewBox="0 0 54 52" fill="none" xmlns="http://www.w3.org/2000/svg">
<path d="M19.0184 22.1769L27.2934 30.1572L45.655 11.6483L46.9965 10.3138C46.9474 10.2029 46.887 10.0977 46.8113 10.0009C45.3533 8.10505 39.882 10.3713 37.909 9.01577C35.9557 7.67425 36.11 1.7469 33.7919 1.05931C31.5495 0.401181 28.4693 5.43606 26.008 5.50061C23.5481 5.56797 20.1999 0.704285 17.9996 1.48449C15.7165 2.29417 16.1936 8.20468 14.3161 9.65004C12.4175 11.1094 6.83252 9.14065 5.47557 11.1094C4.13266 13.0656 7.96916 17.5602 7.28577 19.8826C6.62203 22.1222 0.933237 23.8005 1.00059 26.2632C1.06655 28.7231 6.83813 30.0927 7.61975 32.293C8.42943 34.5747 4.8399 39.2699 6.28245 41.1503C7.74323 43.0461 13.2145 40.777 15.1861 42.134C17.1408 43.4755 16.9851 49.4057 19.3047 50.0904C21.5457 50.75 24.6244 45.7151 27.0885 45.6449C29.5484 45.5804 32.8952 50.4441 35.0969 49.6667C37.3772 48.8542 36.9043 42.9437 38.7832 41.4983C40.679 40.0375 46.2626 42.0105 47.6181 40.0375C48.9625 38.0842 45.1274 33.5868 45.8093 31.2672C46.4731 29.0276 52.1605 27.3493 52.0959 24.8866C52.0496 23.19 49.288 22.0099 47.3234 20.7189" stroke="#60B0E1" stroke-width="2" stroke-miterlimit="10" stroke-linecap="round" stroke-linejoin="round"/>
</svg>
