<svg width="828" height="491" viewBox="0 0 828 491" fill="none" xmlns="http://www.w3.org/2000/svg">
<path d="M344 362C236 353 169.5 324.5 130 277" stroke="#60B0E1" stroke-width="2"/>
<path d="M334.286 382.9C236.5 377 142 344 102 277.5" stroke="#60B0E1" stroke-width="2"/>
<path d="M767 189.5C767 210.434 758.68 230.476 743.462 248.897C708.503 291.214 637.286 324.779 548.148 340.423C512.835 346.62 474.733 350 435 350C393.124 350 353.061 346.246 316.164 339.396C229.684 323.34 160.749 290.308 126.538 248.897C111.32 230.476 103 210.434 103 189.5C103 146.759 137.728 107.677 194.882 78.7241C255.331 48.1014 340.539 29 435 29C521.505 29 600.256 45.0196 659.338 71.2411C725.789 100.733 767 142.945 767 189.5Z" stroke="#DFDFDF" stroke-width="2"/>
<rect x="649" y="79" width="175" height="210" fill="white"/>
<rect y="79" width="175" height="209" fill="white"/>
<rect x="332" y="281" width="183" height="210" fill="white"/>
<circle cx="218" cy="283" r="24" fill="white" stroke="#DFDFDF" stroke-width="2"/>
<path d="M210.976 284.8H218.439" stroke="#60B0E1" stroke-width="2" stroke-miterlimit="10" stroke-linecap="round" stroke-linejoin="round"/>
<path d="M210.976 280.365H222.109" stroke="#60B0E1" stroke-width="2" stroke-miterlimit="10" stroke-linecap="round" stroke-linejoin="round"/>
<path d="M210.896 275.891H218.577" stroke="#60B0E1" stroke-width="2" stroke-miterlimit="10" stroke-linecap="round" stroke-linejoin="round"/>
<path d="M224.464 290.925V295.407" stroke="#60B0E1" stroke-width="2" stroke-miterlimit="10" stroke-linecap="round" stroke-linejoin="round"/>
<path d="M222.278 293.167H226.76" stroke="#60B0E1" stroke-width="2" stroke-miterlimit="10" stroke-linecap="round" stroke-linejoin="round"/>
<path d="M226.211 277.238V285.514" stroke="#60B0E1" stroke-width="2" stroke-miterlimit="10" stroke-linecap="round" stroke-linejoin="round"/>
<path d="M221.913 272.413L226.235 277.238H219.061V271.029L209.73 271C208.774 271 208 271.775 208 272.73V293.273C208 294.229 208.774 295.003 209.73 295.003H219.213L220.459 295.022C220.191 294.451 219.975 293.747 219.975 293.074C219.975 290.614 221.969 288.622 224.426 288.622C226.886 288.622 228.878 290.614 228.878 293.074C228.878 295.534 226.886 297.526 224.426 297.526C223.796 297.526 223.194 297.393 222.649 297.157" stroke="#60B0E1" stroke-width="2" stroke-miterlimit="10" stroke-linecap="round" stroke-linejoin="round"/>
<circle cx="241.5" cy="265.5" r="10.5" fill="white" stroke="#DFDFDF" stroke-width="2"/>
<path d="M244.392 270L244.119 268.271H240.804L242.559 266.581C243.625 265.567 244.223 264.787 244.223 263.591C244.223 262.018 243.105 261.069 241.298 261.069C240.063 261.069 239.14 261.433 238.386 261.94L238.646 263.786C239.4 263.24 240.193 262.889 240.973 262.889C241.688 262.889 242.104 263.227 242.104 263.825C242.104 264.41 241.805 264.826 241.22 265.424L238.191 268.453V270H244.392Z" fill="#60B0E1"/>
<circle cx="276" cy="351" r="24" fill="white" stroke="#60B0E1" stroke-width="2"/>
<circle cx="298.5" cy="332.5" r="10.5" fill="white" stroke="#60B0E1" stroke-width="2"/>
<path d="M301.238 334.543C301.238 333.386 300.601 332.775 299.548 332.437C300.458 332.099 301.095 331.514 301.095 330.357C301.095 328.992 299.977 328.043 298.014 328.043C296.857 328.043 295.856 328.381 295.167 328.849L295.44 330.5C296.103 330.045 296.883 329.772 297.689 329.772C298.534 329.772 298.95 330.11 298.95 330.669C298.95 331.293 298.469 331.696 297.351 331.696H296.415L296.675 333.308H297.416C298.638 333.308 299.119 333.711 299.119 334.426C299.119 335.089 298.586 335.44 297.728 335.44C296.857 335.44 296.038 335.193 295.31 334.79L295.037 336.48C295.778 336.896 296.792 337.169 297.923 337.169C299.821 337.169 301.238 336.246 301.238 334.543Z" fill="#60B0E1"/>
<path d="M276.609 357.344H273.095" stroke="#60B0E1" stroke-width="2" stroke-miterlimit="10" stroke-linecap="round" stroke-linejoin="round"/>
<path d="M274.85 359.553V351.808H276.715C277.709 351.808 278.515 352.381 278.515 353.375C278.515 354.369 277.722 355.131 276.728 355.131H273.108" stroke="#60B0E1" stroke-width="2" stroke-miterlimit="10" stroke-linecap="round" stroke-linejoin="round"/>
<path d="M278.429 341.758L281.237 337.423C280.869 337.154 280.452 337 280.007 337C279.248 337 278.564 337.446 278.085 338.158C277.605 337.446 276.921 337 276.162 337C275.402 337 274.719 337.446 274.239 338.158C273.759 337.446 273.076 337 272.317 337C271.849 337 271.412 337.168 271.032 337.464L272.322 339.21" stroke="#60B0E1" stroke-width="2" stroke-miterlimit="10" stroke-linecap="round" stroke-linejoin="round"/>
<path d="M272.38 344.234C269.084 346.511 263.899 350.449 264.001 355.346C264.227 361.544 269.932 365.201 275.729 365.098C281.525 365.201 287.23 361.544 287.456 355.346C287.557 350.592 282.639 346.722 279.371 344.433C279.289 344.356 279.208 344.279 279.126 344.201C279.37 343.937 279.691 343.426 279.672 343.061L279.652 343.001C279.606 342.218 278.734 341.602 277.897 341.644C276.076 341.644 275.411 341.665 273.568 341.665C272.731 341.622 271.997 342.218 271.952 343.001L271.972 343.101C271.927 343.881 272.654 344.486 273.527 344.517C274.395 344.517 275.13 344.538 275.642 344.538" stroke="#60B0E1" stroke-width="2" stroke-miterlimit="10" stroke-linecap="round" stroke-linejoin="round"/>
<circle cx="155" cy="333" r="24" fill="white" stroke="#60B0E1" stroke-width="2"/>
<path d="M155.879 335.417H152.389" stroke="#60B0E1" stroke-width="2" stroke-miterlimit="10" stroke-linecap="round" stroke-linejoin="round"/>
<path d="M154.097 337.559L154.114 329.717L156.191 329.659C157.227 329.659 158.047 330.132 158.047 331.169C158.047 332.205 157.41 332.766 156.373 332.766H152.358" stroke="#60B0E1" stroke-width="2" stroke-miterlimit="10" stroke-linecap="round" stroke-linejoin="round"/>
<path d="M144.317 333.058C144.317 339.164 149.266 344.115 155.374 344.115C160.051 344.115 164.049 341.21 165.666 337.106" stroke="#60B0E1" stroke-width="2" stroke-miterlimit="10" stroke-linecap="round" stroke-linejoin="round"/>
<path d="M148.138 334.777L144.411 332.215L141 335.182" stroke="#60B0E1" stroke-width="2" stroke-miterlimit="10" stroke-linecap="round" stroke-linejoin="round"/>
<path d="M166.576 333.058C166.576 326.951 161.625 322 155.518 322C150.84 322 146.841 324.905 145.225 329.008" stroke="#60B0E1" stroke-width="2" stroke-miterlimit="10" stroke-linecap="round" stroke-linejoin="round"/>
<path d="M162.754 331.338L166.481 333.9L169.891 330.932" stroke="#60B0E1" stroke-width="2" stroke-miterlimit="10" stroke-linecap="round" stroke-linejoin="round"/>
<circle cx="177.5" cy="314.5" r="10.5" fill="white" stroke="#60B0E1" stroke-width="2"/>
<path d="M181.388 316.062C181.388 314.307 180.205 313.371 178.502 313.371C177.956 313.371 177.553 313.449 177.254 313.527L177.358 311.967H181.18L180.907 310.212H175.72L175.421 314.983L176.76 315.282C177.098 315.139 177.488 315.022 178.021 315.022C178.879 315.022 179.36 315.451 179.36 316.166C179.36 316.959 178.71 317.401 177.826 317.401C176.916 317.401 176.084 317.115 175.369 316.764L175.083 318.571C175.85 318.922 176.747 319.169 177.839 319.169C179.906 319.169 181.388 318.077 181.388 316.062Z" fill="#60B0E1"/>
<circle cx="101" cy="163" r="72" fill="#DFDFDF"/>
<circle cx="736" cy="163" r="72" fill="#DFDFDF"/>
<circle cx="423" cy="353" r="72" fill="#60B0E1"/>
<path d="M106.902 173.255V147H73V176.104L79.5807 177.714" stroke="#60B0E1" stroke-width="2" stroke-miterlimit="10" stroke-linecap="round" stroke-linejoin="round"/>
<path d="M126.82 178.444H132.964V168.205C132.964 165.281 124.338 162.21 124.338 162.21L121.412 154.752H111.313" stroke="#60B0E1" stroke-width="2" stroke-miterlimit="10" stroke-linecap="round" stroke-linejoin="round"/>
<path d="M95.9826 178.173H112.295" stroke="#60B0E1" stroke-width="2" stroke-miterlimit="10" stroke-linecap="round" stroke-linejoin="round"/>
<path d="M126.31 178.173C126.31 181.844 123.33 184.82 119.661 184.82C115.989 184.82 113.016 181.844 113.016 178.173C113.016 174.504 115.989 171.528 119.661 171.528C123.33 171.528 126.31 174.504 126.31 178.173Z" stroke="#60B0E1" stroke-width="2" stroke-miterlimit="10" stroke-linecap="round" stroke-linejoin="round"/>
<path d="M93.2719 178.173C93.2719 181.844 90.2988 184.82 86.6283 184.82C82.9577 184.82 79.9828 181.844 79.9828 178.173C79.9828 174.504 82.9577 171.528 86.6283 171.528C90.2988 171.528 93.2719 174.504 93.2719 178.173Z" stroke="#60B0E1" stroke-width="2" stroke-miterlimit="10" stroke-linecap="round" stroke-linejoin="round"/>
<path d="M62.3967 270V256.2H51.7967V270H53.6767V257.92H60.5167V270H62.3967ZM73.7425 265.24C73.7425 262.1 71.8625 260.26 69.3025 260.26C66.7625 260.26 64.9225 262.1 64.9225 265.24C64.9225 268.38 66.7625 270.2 69.3025 270.2C71.8625 270.2 73.7425 268.38 73.7425 265.24ZM71.9425 265.24C71.9425 267.24 71.0625 268.72 69.3025 268.72C67.6225 268.72 66.7225 267.2 66.7225 265.24C66.7225 263.24 67.5825 261.74 69.3025 261.74C71.0225 261.74 71.9425 263.28 71.9425 265.24ZM83.1694 269.22L82.9094 267.58C81.9694 268.38 81.0294 268.64 80.0694 268.64C78.4694 268.64 77.2694 267.54 77.2694 265.22C77.2694 263.02 78.3694 261.82 80.0094 261.82C81.1094 261.82 81.9894 262.22 82.8094 262.88L83.0694 261.14C82.4294 260.68 81.4094 260.26 80.0294 260.26C77.4694 260.26 75.4694 262 75.4694 265.24C75.4694 268.42 77.3494 270.2 79.9094 270.2C81.2694 270.2 82.2894 269.88 83.1694 269.22ZM87.6253 270H89.4053V262.02H92.7453L92.5053 260.46H84.4253V262.02H87.6253V270ZM101.53 270V263.32C101.53 261.2 100.41 260.26 98.0902 260.26C96.6102 260.26 95.5302 260.6 94.3902 261.06L94.6302 262.6C95.6702 262.14 96.7702 261.78 97.9302 261.78C99.0302 261.78 99.7502 262.2 99.7502 263.4V263.8C95.7702 264.22 93.7302 265.16 93.7302 267.54C93.7302 269.16 94.8102 270.2 96.5302 270.2C98.0902 270.2 99.1302 269.5 99.8902 268.72L100.09 270H101.53ZM99.7502 267.38C98.9502 268.2 97.9502 268.72 96.9102 268.72C96.0102 268.72 95.4902 268.22 95.4902 267.44C95.4902 266.46 96.2302 265.5 99.7502 265.16V267.38ZM112.051 267.2C112.051 265.94 111.331 265.28 110.191 264.96C111.051 264.6 111.711 264.06 111.711 262.88C111.711 261.46 110.611 260.46 108.311 260.46H104.291V270H108.211C110.531 270 112.051 269.12 112.051 267.2ZM110.291 267.16C110.291 268.14 109.491 268.54 108.191 268.54H105.991V265.72H108.291C109.671 265.72 110.291 266.24 110.291 267.16ZM109.971 263.08C109.971 263.88 109.431 264.32 108.211 264.32H105.991V261.92H108.191C109.431 261.92 109.971 262.36 109.971 263.08ZM120.031 260.46V268.5H116.071V260.46H114.291V270H127.191V273.1L128.871 272.84V268.5H127.551V260.46H125.771V268.5H121.811V260.46H120.031ZM130.755 270H132.535L137.115 262.98V270H138.855V260.46H137.055L132.495 267.48V260.46H130.755V270ZM147.634 270.14L149.634 269.84L145.254 264.98L149.314 260.46H147.134L143.434 264.76V260.46H141.654V270H143.434V265.3L147.634 270.14Z" fill="#333333"/>
<path d="M711.683 183.546H761.249" stroke="#60B0E1" stroke-width="2" stroke-miterlimit="10" stroke-linecap="round"/>
<path d="M710 149.301C710 149.301 715.686 146.556 718.315 142H753.708C753.708 142 756.042 145.505 759.255 146.672M710 149.301V155.924C712.364 157.908 714.66 157.577 716.551 155.924M710 149.301H762V152.922M758.885 183.208V160.332M713.663 183.555V159.917M754.915 155.924C757.279 157.908 759.575 157.577 761.466 155.924M748.499 155.924C750.863 157.908 753.159 157.577 755.05 155.924M742.082 155.924C744.446 157.908 746.742 157.577 748.633 155.924M735.666 155.924C738.03 157.908 740.326 157.577 742.217 155.924M729.249 155.924C731.613 157.908 733.909 157.577 735.8 155.924M722.833 155.924C725.197 157.908 727.493 157.577 729.384 155.924M716.416 155.924C718.78 157.908 721.076 157.577 722.967 155.924M721.972 183.191V164.086H734.865V180.262M751.359 174.31H741.536V164.487H751.359V174.31Z" stroke="#60B0E1" stroke-width="2" stroke-miterlimit="10" stroke-linecap="round" stroke-linejoin="round"/>
<path d="M696.766 270V256.2H686.166V270H688.046V257.92H694.886V270H696.766ZM708.112 265.24C708.112 262.1 706.232 260.26 703.672 260.26C701.132 260.26 699.292 262.1 699.292 265.24C699.292 268.38 701.132 270.2 703.672 270.2C706.232 270.2 708.112 268.38 708.112 265.24ZM706.312 265.24C706.312 267.24 705.432 268.72 703.672 268.72C701.992 268.72 701.092 267.2 701.092 265.24C701.092 263.24 701.952 261.74 703.672 261.74C705.392 261.74 706.312 263.28 706.312 265.24ZM716.359 270.14L718.359 269.84L713.979 264.98L718.039 260.46H715.859L712.159 264.76V260.46H710.379V270H712.159V265.3L716.359 270.14ZM727.593 260.46H725.733L723.233 267.88L720.673 260.32L718.873 260.6L722.353 270.04L722.113 270.68C721.733 271.7 721.193 272.08 720.393 272.08C720.113 272.08 719.753 272.02 719.453 271.94L719.713 273.56C719.893 273.6 720.093 273.64 720.473 273.64C721.873 273.64 722.913 273.12 723.693 271L727.593 260.46ZM737.361 270V260.46H729.461V270H731.241V261.96H735.581V270H737.361ZM747.384 270V263.32C747.384 261.2 746.264 260.26 743.944 260.26C742.464 260.26 741.384 260.6 740.244 261.06L740.484 262.6C741.524 262.14 742.624 261.78 743.784 261.78C744.884 261.78 745.604 262.2 745.604 263.4V263.8C741.624 264.22 739.584 265.16 739.584 267.54C739.584 269.16 740.664 270.2 742.384 270.2C743.944 270.2 744.984 269.5 745.744 268.72L745.944 270H747.384ZM745.604 267.38C744.804 268.2 743.804 268.72 742.764 268.72C741.864 268.72 741.344 268.22 741.344 267.44C741.344 266.46 742.084 265.5 745.604 265.16V267.38ZM752.326 270H754.106V262.02H757.446L757.206 260.46H749.126V262.02H752.326V270ZM766.653 268.92L766.393 267.32C765.353 268.14 764.353 268.68 762.973 268.68C761.313 268.68 760.253 267.64 760.193 265.42H766.673V265.04C766.673 262.4 765.393 260.26 762.613 260.26C760.213 260.26 758.413 262.14 758.413 265.2C758.413 268.7 760.353 270.2 762.833 270.2C764.413 270.2 765.633 269.72 766.653 268.92ZM762.593 261.66C763.973 261.66 764.653 262.54 764.873 264.08H760.273C760.553 262.46 761.493 261.66 762.593 261.66ZM767.853 268.6L768.113 270.22C770.653 269.76 771.653 268.28 772.093 264.34L772.353 261.96H775.133V270H776.913V260.46H770.833L770.393 264.16C770.033 267.16 769.493 268.2 767.853 268.6ZM786.854 266.8C786.854 264.84 785.574 263.7 783.154 263.7H781.494V260.46H779.714V270H782.994C785.314 270 786.854 268.82 786.854 266.8ZM785.134 266.82C785.134 267.88 784.394 268.52 783.034 268.52H781.494V265.18H783.074C784.494 265.18 785.134 265.78 785.134 266.82Z" fill="#333333"/>
<path d="M392.943 455.08C392.943 450.82 390.503 447.94 386.603 447.94C382.723 447.94 380.223 450.84 380.223 455.12C380.223 459.38 382.683 462.26 386.563 462.26C390.463 462.26 392.943 459.34 392.943 455.08ZM391.003 455.1C391.003 458.42 389.323 460.54 386.583 460.54C383.863 460.54 382.163 458.42 382.163 455.1C382.163 451.78 383.843 449.66 386.583 449.66C389.303 449.66 391.003 451.78 391.003 455.1ZM397.725 462H399.505V454.02H402.845L402.605 452.46H394.525V454.02H397.725V462ZM410.585 462.14L412.585 461.84L408.205 456.98L412.265 452.46H410.085L406.385 456.76V452.46H404.605V462H406.385V457.3L410.585 462.14ZM422.714 456.96C422.714 453.78 421.014 452.26 418.954 452.26C417.554 452.26 416.574 453 415.854 453.84L415.634 452.46H414.214V465.72L415.994 465.46V461.7C416.594 461.94 417.454 462.12 418.394 462.12C420.714 462.12 422.714 460.44 422.714 456.96ZM420.914 457.04C420.914 459.4 419.814 460.62 418.314 460.62C417.294 460.62 416.714 460.46 415.994 460.1V455.52C416.754 454.5 417.594 453.84 418.674 453.84C419.974 453.84 420.914 454.96 420.914 457.04ZM435.436 462V452.46H433.656V462H435.436ZM432.016 458.8C432.016 456.84 430.736 455.7 428.316 455.7H426.756V452.46H424.976V462H428.156C430.476 462 432.016 460.82 432.016 458.8ZM430.296 458.82C430.296 459.88 429.556 460.52 428.196 460.52H426.756V457.18H428.236C429.656 457.18 430.296 457.78 430.296 458.82ZM440.518 462H442.298V454.02H445.638L445.398 452.46H437.318V454.02H440.518V462ZM447.398 462H449.178L453.758 454.98V462H455.498V452.46H453.698L449.138 459.48V452.46H447.398V462ZM465.996 460.92L465.736 459.32C464.696 460.14 463.696 460.68 462.316 460.68C460.656 460.68 459.596 459.64 459.536 457.42H466.016V457.04C466.016 454.4 464.736 452.26 461.956 452.26C459.556 452.26 457.756 454.14 457.756 457.2C457.756 460.7 459.696 462.2 462.176 462.2C463.756 462.2 464.976 461.72 465.996 460.92ZM461.936 453.66C463.316 453.66 463.996 454.54 464.216 456.08H459.616C459.896 454.46 460.836 453.66 461.936 453.66ZM389.728 479.22C389.728 476.42 387.748 474.56 384.108 474.34V469.56L382.368 469.84V474.34C378.788 474.56 376.748 476.42 376.748 479.24C376.748 482.06 378.728 483.92 382.368 484.12V487.72L384.108 487.46V484.12C387.688 483.9 389.728 482.04 389.728 479.22ZM378.548 479.24C378.548 477.22 379.828 476.02 382.388 475.84V482.64C379.908 482.46 378.548 481.28 378.548 479.24ZM387.928 479.24C387.928 481.26 386.628 482.46 384.088 482.64V475.86C386.528 476.04 387.928 477.22 387.928 479.24ZM399.1 484V477.32C399.1 475.2 397.98 474.26 395.66 474.26C394.18 474.26 393.1 474.6 391.96 475.06L392.2 476.6C393.24 476.14 394.34 475.78 395.5 475.78C396.6 475.78 397.32 476.2 397.32 477.4V477.8C393.34 478.22 391.3 479.16 391.3 481.54C391.3 483.16 392.38 484.2 394.1 484.2C395.66 484.2 396.7 483.5 397.46 482.72L397.66 484H399.1ZM397.32 481.38C396.52 482.2 395.52 482.72 394.48 482.72C393.58 482.72 393.06 482.22 393.06 481.44C393.06 480.46 393.8 479.5 397.32 479.16V481.38ZM407.841 484.14L409.841 483.84L405.461 478.98L409.521 474.46H407.341L403.641 478.76V474.46H401.861V484H403.641V479.3L407.841 484.14ZM413.75 484H415.53V476.02H418.87L418.63 474.46H410.55V476.02H413.75V484ZM428.657 479.24C428.657 476.1 426.777 474.26 424.217 474.26C421.677 474.26 419.837 476.1 419.837 479.24C419.837 482.38 421.677 484.2 424.217 484.2C426.777 484.2 428.657 482.38 428.657 479.24ZM426.857 479.24C426.857 481.24 425.977 482.72 424.217 482.72C422.537 482.72 421.637 481.2 421.637 479.24C421.637 477.24 422.497 475.74 424.217 475.74C425.937 475.74 426.857 477.28 426.857 479.24ZM439.423 478.96C439.423 475.78 437.723 474.26 435.663 474.26C434.263 474.26 433.283 475 432.563 475.84L432.343 474.46H430.923V487.72L432.703 487.46V483.7C433.303 483.94 434.163 484.12 435.103 484.12C437.423 484.12 439.423 482.44 439.423 478.96ZM437.623 479.04C437.623 481.4 436.523 482.62 435.023 482.62C434.003 482.62 433.423 482.46 432.703 482.1V477.52C433.463 476.5 434.303 475.84 435.383 475.84C436.683 475.84 437.623 476.96 437.623 479.04ZM441.685 484H443.465L448.045 476.98V484H449.785V474.46H447.985L443.425 481.48V474.46H441.685V484ZM460.564 484V474.46H458.784V478.34H454.364V474.46H452.584V484H454.364V479.84H458.784V484H460.564ZM463.365 484H465.145V476.04H469.545L469.325 474.46H463.365V484Z" fill="#333333"/>
<circle cx="424" cy="356" r="30" fill="white"/>
<path d="M441.785 359.148C441.696 362.54 439.752 367.293 434.428 370.185C433.157 370.875 431.787 371.463 430.808 369.885C429.912 368.442 430.952 367.516 432.083 366.831C434.848 365.157 435.814 362.668 435.661 359.547C435.56 357.487 435.603 355.417 435.65 353.353C435.719 350.276 434.768 347.748 432.05 346.037C430.966 345.354 429.792 344.538 430.763 343.024C431.758 341.473 433.104 341.962 434.382 342.679C439.89 345.778 441.909 350.715 441.785 359.148Z" fill="#60B0E1"/>
<path d="M405.169 356.488C404.797 350.46 407.137 345.836 412.381 342.729C413.665 341.969 415.035 341.471 415.995 342.973C416.869 344.339 415.82 345.188 414.774 346.063C409.281 350.659 409.252 362.287 414.716 366.845C415.744 367.703 416.866 368.517 416.023 369.916C415.101 371.445 413.732 371.008 412.431 370.243C407.171 367.158 404.802 362.554 405.169 356.488Z" fill="#60B0E1"/>
<path d="M680.416 327.664L676.352 322.112L680.32 316.96H677.152L673.744 321.68V316.96H671.008V328H673.744V322.864L677.424 328.112L680.416 327.664ZM688.031 324.08C688.031 321.568 686.431 320 684.255 320C682.095 320 680.495 321.584 680.495 324.096C680.495 326.608 682.079 328.16 684.239 328.16C686.415 328.16 688.031 326.592 688.031 324.08ZM685.695 324.096C685.695 325.36 685.183 326.208 684.255 326.208C683.343 326.208 682.831 325.344 682.831 324.08C682.831 322.8 683.327 321.968 684.255 321.968C685.183 321.968 685.695 322.832 685.695 324.096ZM696.452 328V320.16H694.02V323.008H691.732V320.16H689.316V328H691.732V324.976H694.02V328H696.452ZM699.889 328H702.305V322.144H704.705L704.417 320.16H697.617V322.144H699.889V328ZM713.099 323.872C713.099 321.216 711.883 320 710.267 320C709.259 320 708.555 320.592 708.011 321.184L707.851 320.16H705.723V330.976L708.139 330.608V327.808C708.587 327.952 709.083 328.08 709.787 328.08C711.515 328.08 713.099 326.848 713.099 323.872ZM710.667 324.032C710.667 325.552 710.059 326.176 709.243 326.176C708.763 326.176 708.475 326.096 708.139 325.936V322.96C708.555 322.48 708.955 322.16 709.483 322.16C710.171 322.16 710.667 322.72 710.667 324.032ZM720.938 328V322.752C720.938 320.752 719.866 320.032 717.706 320.032C716.426 320.032 715.418 320.272 714.522 320.64L714.81 322.464C715.642 322.096 716.458 321.872 717.338 321.872C718.138 321.872 718.522 322.176 718.522 322.864V323.008C715.45 323.28 714.042 324.144 714.042 325.984C714.042 327.408 714.922 328.16 716.17 328.16C717.242 328.16 717.994 327.696 718.634 327.024L718.794 328H720.938ZM718.522 325.84C718.09 326.224 717.642 326.432 717.194 326.432C716.73 326.432 716.426 326.16 716.426 325.664C716.426 324.976 716.874 324.432 718.522 324.176V325.84ZM727.191 328.112L729.751 327.76L727.175 323.872L729.719 320.16H727.047L724.951 323.488V320.16H722.535V328H724.951V324.448L727.191 328.112ZM732.452 328H734.868V322.144H737.268L736.98 320.16H730.18V322.144H732.452V328ZM745.421 328V320.16H742.989V323.008H740.701V320.16H738.285V328H740.701V324.976H742.989V328H745.421ZM753.594 328V322.752C753.594 320.752 752.522 320.032 750.362 320.032C749.082 320.032 748.074 320.272 747.178 320.64L747.466 322.464C748.298 322.096 749.114 321.872 749.994 321.872C750.794 321.872 751.178 322.176 751.178 322.864V323.008C748.106 323.28 746.698 324.144 746.698 325.984C746.698 327.408 747.578 328.16 748.826 328.16C749.898 328.16 750.65 327.696 751.29 327.024L751.45 328H753.594ZM751.178 325.84C750.746 326.224 750.298 326.432 749.85 326.432C749.386 326.432 749.082 326.16 749.082 325.664C749.082 324.976 749.53 324.432 751.178 324.176V325.84ZM756.967 328.16L758.775 325.664H759.623V328H762.023V320.16H758.791C756.375 320.16 755.191 321.28 755.191 322.912C755.191 323.936 755.719 324.704 756.551 325.136L754.551 327.744L756.967 328.16ZM757.463 322.896C757.463 322.224 757.991 321.824 758.871 321.824H759.655V324.016H758.855C757.943 324.016 757.463 323.632 757.463 322.896ZM677.984 343.08C677.984 340.568 676.384 339 674.208 339C672.048 339 670.448 340.584 670.448 343.096C670.448 345.608 672.032 347.16 674.192 347.16C676.368 347.16 677.984 345.592 677.984 343.08ZM675.648 343.096C675.648 344.36 675.136 345.208 674.208 345.208C673.296 345.208 672.784 344.344 672.784 343.08C672.784 341.8 673.28 340.968 674.208 340.968C675.136 340.968 675.648 341.832 675.648 343.096ZM680.889 347H683.305V341.144H685.705L685.417 339.16H678.617V341.144H680.889V347ZM692.486 346.456L692.198 344.472C691.542 344.904 690.982 345.064 690.406 345.064C689.43 345.064 688.646 344.424 688.646 343.08C688.646 341.768 689.35 341.112 690.342 341.112C690.982 341.112 691.494 341.304 692.102 341.688L692.422 339.624C691.798 339.272 691.046 339.032 690.102 339.032C687.958 339.032 686.198 340.392 686.198 343.144C686.198 345.672 687.734 347.144 689.99 347.144C690.95 347.144 691.734 346.92 692.486 346.456ZM701.192 342.872C701.192 340.216 699.976 339 698.36 339C697.352 339 696.648 339.592 696.104 340.184L695.944 339.16H693.816V349.976L696.232 349.608V346.808C696.68 346.952 697.176 347.08 697.88 347.08C699.608 347.08 701.192 345.848 701.192 342.872ZM698.76 343.032C698.76 344.552 698.152 345.176 697.336 345.176C696.856 345.176 696.568 345.096 696.232 344.936V341.96C696.648 341.48 697.048 341.16 697.576 341.16C698.264 341.16 698.76 341.72 698.76 343.032ZM709.672 343.08C709.672 340.568 708.072 339 705.896 339C703.736 339 702.136 340.584 702.136 343.096C702.136 345.608 703.72 347.16 705.88 347.16C708.056 347.16 709.672 345.592 709.672 343.08ZM707.336 343.096C707.336 344.36 706.824 345.208 705.896 345.208C704.984 345.208 704.472 344.344 704.472 343.08C704.472 341.8 704.968 340.968 705.896 340.968C706.824 340.968 707.336 341.832 707.336 343.096ZM710.717 339.16V341.928C710.717 343.992 711.725 344.872 713.757 344.872C714.253 344.872 714.669 344.824 715.197 344.728V347H717.613V339.16H715.197V342.696C714.893 342.76 714.653 342.76 714.397 342.76C713.501 342.76 713.133 342.456 713.133 341.704V339.16H710.717ZM723.926 347.112L726.486 346.76L723.91 342.872L726.454 339.16H723.782L721.686 342.488V339.16H719.27V347H721.686V343.448L723.926 347.112ZM733.797 347V341.752C733.797 339.752 732.725 339.032 730.565 339.032C729.285 339.032 728.277 339.272 727.381 339.64L727.669 341.464C728.501 341.096 729.317 340.872 730.197 340.872C730.997 340.872 731.381 341.176 731.381 341.864V342.008C728.309 342.28 726.901 343.144 726.901 344.984C726.901 346.408 727.781 347.16 729.029 347.16C730.101 347.16 730.853 346.696 731.493 346.024L731.653 347H733.797ZM731.381 344.84C730.949 345.224 730.501 345.432 730.053 345.432C729.589 345.432 729.285 345.16 729.285 344.664C729.285 343.976 729.733 343.432 731.381 343.176V344.84Z" fill="#60B0E1"/>
<circle cx="590" cy="328" r="24" fill="white" stroke="#DFDFDF" stroke-width="2"/>
<path d="M590.879 330.417H587.389" stroke="#60B0E1" stroke-width="2" stroke-miterlimit="10" stroke-linecap="round" stroke-linejoin="round"/>
<path d="M589.097 332.559L589.114 324.717L591.191 324.659C592.227 324.659 593.047 325.132 593.047 326.169C593.047 327.205 592.41 327.766 591.373 327.766H587.358" stroke="#60B0E1" stroke-width="2" stroke-miterlimit="10" stroke-linecap="round" stroke-linejoin="round"/>
<path d="M579.317 328.058C579.317 334.164 584.266 339.115 590.374 339.115C595.051 339.115 599.049 336.21 600.666 332.106" stroke="#60B0E1" stroke-width="2" stroke-miterlimit="10" stroke-linecap="round" stroke-linejoin="round"/>
<path d="M583.138 329.777L579.411 327.215L576 330.182" stroke="#60B0E1" stroke-width="2" stroke-miterlimit="10" stroke-linecap="round" stroke-linejoin="round"/>
<path d="M601.576 328.058C601.576 321.951 596.625 317 590.518 317C585.84 317 581.841 319.905 580.225 324.008" stroke="#60B0E1" stroke-width="2" stroke-miterlimit="10" stroke-linecap="round" stroke-linejoin="round"/>
<path d="M597.754 326.338L601.481 328.9L604.891 325.932" stroke="#60B0E1" stroke-width="2" stroke-miterlimit="10" stroke-linecap="round" stroke-linejoin="round"/>
<circle cx="612.5" cy="309.5" r="10.5" fill="white" stroke="#DFDFDF" stroke-width="2"/>
<path d="M615.716 312.245V310.776H614.481V305.199H612.076L608.371 310.893V312.245H612.44V314H614.481V312.245H615.716ZM612.44 310.776H610.191L612.44 307.292V310.776Z" fill="#60B0E1"/>
<circle cx="426" cy="31" r="24" fill="white" stroke="#DFDFDF" stroke-width="2"/>
<path d="M428.099 35.1072V24H413.756V36.3125L416.54 36.9935" stroke="#60B0E1" stroke-width="2" stroke-miterlimit="10" stroke-linecap="round" stroke-linejoin="round"/>
<path d="M436.525 37.3026H439.124V32.9709C439.124 31.7338 435.475 30.4346 435.475 30.4346L434.238 27.2794H429.965" stroke="#60B0E1" stroke-width="2" stroke-miterlimit="10" stroke-linecap="round" stroke-linejoin="round"/>
<path d="M423.479 37.1879H430.381" stroke="#60B0E1" stroke-width="2" stroke-miterlimit="10" stroke-linecap="round" stroke-linejoin="round"/>
<path d="M436.31 37.1879C436.31 38.7408 435.049 40 433.497 40C431.943 40 430.685 38.7408 430.685 37.1879C430.685 35.6359 431.943 34.3766 433.497 34.3766C435.049 34.3766 436.31 35.6359 436.31 37.1879Z" stroke="#60B0E1" stroke-width="2" stroke-miterlimit="10" stroke-linecap="round" stroke-linejoin="round"/>
<path d="M422.333 37.1879C422.333 38.7408 421.075 40 419.522 40C417.969 40 416.711 38.7408 416.711 37.1879C416.711 35.6359 417.969 34.3766 419.522 34.3766C421.075 34.3766 422.333 35.6359 422.333 37.1879Z" stroke="#60B0E1" stroke-width="2" stroke-miterlimit="10" stroke-linecap="round" stroke-linejoin="round"/>
<circle cx="444.5" cy="11.5" r="10.5" fill="white" stroke="#DFDFDF" stroke-width="2"/>
<path d="M445.76 16V7.199H443.823L441.574 8.239L441.821 9.929L443.576 9.24V16H445.76Z" fill="#60B0E1"/>
<circle cx="656.5" cy="309.5" r="6.5" fill="#60B0E1"/>
<circle cx="250.5" cy="346.5" r="6.5" fill="#60B0E1"/>
<circle cx="213.5" cy="307.5" r="6.5" fill="#DFDFDF"/>
<circle cx="400.5" cy="29.5" r="6.5" fill="#DFDFDF"/>
<circle cx="178.5" cy="343.5" r="6.5" fill="#60B0E1"/>
<path d="M676.071 73L676.071 80.0711L669 80.0711" stroke="#DFDFDF" stroke-width="2"/>
<path d="M521.124 349.659L515 346.124L518.536 340" stroke="#DFDFDF" stroke-width="2"/>
<path d="M330.124 337L333.659 343.124L327.536 346.659" stroke="#DFDFDF" stroke-width="2"/>
<path d="M138.686 294.627L140.032 287.686L146.974 289.032" stroke="#60B0E1" stroke-width="2"/>
<path d="M107.686 294.627L109.032 287.686L115.974 289.032" stroke="#60B0E1" stroke-width="2"/>
</svg>
