<svg width="44" height="42" viewBox="0 0 44 42" fill="none" xmlns="http://www.w3.org/2000/svg">
<path d="M36.4167 20.1295L29.48 25.2043L34.2953 40.1405L21.5767 30.9478L8.8594 40.1405L13.6734 25.2043L1 15.9307H16.6927L21.5767 1L26.4607 15.9307H42.1534" stroke="white" stroke-width="2" stroke-miterlimit="10" stroke-linecap="round" stroke-linejoin="round"/>
</svg>
