<svg width="26" height="25" viewBox="0 0 26 25" fill="none" xmlns="http://www.w3.org/2000/svg">
<path d="M11.9244 17.6348C11.9059 17.633 11.8856 17.6287 11.863 17.621C11.8513 17.6127 11.8357 17.6021 11.8173 17.5911L11.8174 17.591L11.8061 17.5846C11.7665 17.5622 11.7524 17.5486 11.7472 17.5428L11.7469 17.5424C11.7282 17.5217 11.7101 17.5049 11.6941 17.4914C11.694 17.4913 11.6939 17.4912 11.6938 17.4911L11.5056 17.2565L11.4296 17.1617L11.3184 17.1125C11.2711 17.0915 11.2513 17.0771 11.2427 17.0694C11.2276 17.0539 11.2074 17.0236 11.191 16.9506L11.1656 16.837L11.0925 16.7463L4.61582 8.71518L4.61575 8.71508C4.53759 8.61822 4.55033 8.47913 4.65989 8.39631C4.78217 8.30515 4.95571 8.33228 5.04109 8.43859L5.04176 8.43942L10.7936 15.57L11.6813 16.6706V15.2566V8.57728C11.6813 8.4648 11.7818 8.34165 11.9449 8.34165C12.108 8.34165 12.2085 8.4648 12.2085 8.57728V14.6466V15.8201L13.0539 15.0062L19.876 8.43871L19.8761 8.43861C19.9807 8.3378 20.1575 8.33797 20.2621 8.43903L20.2627 8.43963C20.3563 8.52971 20.3563 8.66908 20.2623 8.75927L20.2618 8.75979L16.2392 12.6326L15.8661 12.9919L16.2389 13.3515L20.2694 17.2393L20.2703 17.2401C20.3637 17.3298 20.3647 17.4679 20.2701 17.5595C20.2183 17.609 20.1492 17.6358 20.0769 17.6358C20.0057 17.6358 19.9368 17.6097 19.883 17.5587C19.8827 17.5585 19.8824 17.5583 19.8822 17.558L15.8528 13.6713L15.5065 13.3373L15.1599 13.671L12.3614 16.3656L12.2085 16.5129V16.7252V17.3415C12.2048 17.3603 12.2016 17.3821 12.1998 17.4063C12.1998 17.4064 12.1998 17.4064 12.1998 17.4065C12.199 17.41 12.1977 17.4153 12.1953 17.424L12.1868 17.4543C12.183 17.4674 12.1793 17.4805 12.1771 17.4883L12.1754 17.4942C12.1749 17.4949 12.1744 17.4955 12.1738 17.4962L12.1562 17.5183L12.1561 17.5183L12.1514 17.5243L12.1306 17.5509C12.1249 17.558 12.1209 17.5628 12.1179 17.5663C12.116 17.5685 12.1147 17.57 12.114 17.5708C12.1118 17.5727 12.1097 17.5746 12.1076 17.5765C12.0971 17.5815 12.0846 17.5876 12.0713 17.5947L12.0694 17.5957C12.0555 17.6031 12.0433 17.61 12.0354 17.6145L12.0276 17.6189C11.9968 17.6291 11.9745 17.6334 11.9594 17.635C11.9545 17.6349 11.9497 17.6348 11.9449 17.6348H11.9244ZM12.2303 17.2607L12.2303 17.2609L12.2303 17.2607ZM11.6175 17.437C11.6172 17.4369 11.6173 17.4369 11.6175 17.437L11.6175 17.437ZM21.0284 24.4978H4.89417C2.45482 24.4978 0.499201 22.5866 0.499201 20.2786V4.71945C0.499201 2.41029 2.45489 0.499201 4.89417 0.499201H21.0284C23.4676 0.499201 25.4233 2.41029 25.4233 4.71945V20.2786C25.4233 22.5866 23.4677 24.4978 21.0284 24.4978ZM24.8972 4.71945C24.8972 2.63552 23.1437 0.971446 21.0284 0.971446H4.89417C2.77865 0.971446 1.02636 2.63571 1.02636 4.71945V20.2786C1.02636 22.3614 2.77875 24.0256 4.89417 24.0256H21.0284C23.1436 24.0256 24.8972 22.3616 24.8972 20.2786V4.71945Z" stroke="currentColor" style="stroke-width: inherit;"/>
</svg>
